…
<img src="man/figures/README-building-1.png" width="70%" />

## Visualization of Polls

Accessing data of the most recent polls from RealClearPolitics or
FiveThirtyEight is done with functions `rcp_update()` or
`fivethirtyeight_update()` respectively. Each one of these functions has
a parameter `polls` to allow for a finer grained choice of which polls
to focus on:

``` r
new_polls <- fivethirtyeight_update(polls="president_polls")
new_polls %>% filter(!is.na(state)) %>%
  select(poll_id, start_date, end_date, pollster, state, candidate_name, pct)
#> # A tibble: 3,159 x 7
#>    poll_id start_date end_date   pollster        state    candidate_name     pct
#>      <dbl> <date>     <date>     <chr>           <chr>    <chr>            <dbl>
#>  1   67962 2020-08-04 2020-08-07 YouGov          Pennsyl… Joseph R. Biden…    49
#>  2   67962 2020-08-04 2020-08-07 YouGov          Pennsyl… Donald Trump        43
#>  3   67963 2020-08-04 2020-08-07 YouGov          Wiscons… Joseph R. Biden…    48
#>  4   67963 2020-08-04 2020-08-07 YouGov          Wiscons… Donald Trump        42
#>  5   67956 2020-08-05 2020-08-06 Public Policy … Kansas   Joseph R. Biden…    43
#>  6   67956 2020-08-05 2020-08-06 Public Policy … Kansas   Donald Trump        50
#>  7   67968 2020-07-27 2020-08-06 YouGov          Michigan Joseph R. Biden…    47
#>  8   67968 2020-07-27 2020-08-06 YouGov          Michigan Donald Trump        43
#>  9   67969 2020-07-27 2020-08-06 YouGov          Pennsyl… Joseph R. Biden…    50
#> 10   67969 2020-07-27 2020-08-06 YouGov          Pennsyl… Donald Trump        41
#> # … with 3,149 more rows
```
…
