Visualizing US Polls and Election Results • electionViz
…
Accessing data of the most recent polls from RealClearPolitics or FiveThirtyEight is done with functions rcp_update() or fivethirtyeight_update() respectively. Each one of these functions has a parameter polls to allow for a finer grained choice of which polls to focus on:

new_polls <- fivethirtyeight_update(polls="president_polls")
#> Warning: 44 parsing failures.
#>  row               col           expected          actual                                                                  file
#> 1923 sponsor_candidate 1/0/T/F/TRUE/FALSE Nicole Galloway 'https://projects.fivethirtyeight.com/polls-page/president_polls.csv'
#> 1924 sponsor_candidate 1/0/T/F/TRUE/FALSE Nicole Galloway 'https://projects.fivethirtyeight.com/polls-page/president_polls.csv'
#> 2585 sponsor_candidate 1/0/T/F/TRUE/FALSE Al Gross        'https://projects.fivethirtyeight.com/polls-page/president_polls.csv'
#> 2586 sponsor_candidate 1/0/T/F/TRUE/FALSE Al Gross        'https://projects.fivethirtyeight.com/polls-page/president_polls.csv'
#> 2968 sponsor_candidate 1/0/T/F/TRUE/FALSE Raphael Warnock 'https://projects.fivethirtyeight.com/polls-page/president_polls.csv'
#> .... ................. .................. ............... .....................................................................
#> See problems(...) for more details.
new_polls %>% filter(!is.na(state)) %>%
  select(poll_id, start_date, end_date, pollster, state, candidate_name, pct)
#> # A tibble: 6,870 x 7
#>    poll_id start_date end_date   pollster    state       candidate_name      pct
#>      <dbl> <date>     <date>     <chr>       <chr>       <chr>             <dbl>
#>  1   71295 2020-10-13 2020-10-16 YouGov      Arizona     Joseph R. Biden …    50
#>  2   71295 2020-10-13 2020-10-16 YouGov      Arizona     Donald Trump         47
#>  3   71296 2020-10-13 2020-10-16 YouGov      Wisconsin   Joseph R. Biden …    51
#>  4   71296 2020-10-13 2020-10-16 YouGov      Wisconsin   Donald Trump         46
#>  5   71242 2020-09-19 2020-10-16 SurveyMonk… Wyoming     Joseph R. Biden …    33
#>  6   71242 2020-09-19 2020-10-16 SurveyMonk… Wyoming     Donald Trump         66
#>  7   71242 2020-09-19 2020-10-16 SurveyMonk… Wyoming     Joseph R. Biden …    33
#>  8   71242 2020-09-19 2020-10-16 SurveyMonk… Wyoming     Donald Trump         66
#>  9   71243 2020-09-19 2020-10-16 SurveyMonk… West Virgi… Joseph R. Biden …    35
#> 10   71243 2020-09-19 2020-10-16 SurveyMonk… West Virgi… Donald Trump         63
#> # … with 6,860 more rows
…
